%YAML 1.1
%TAG !u! tag:unity3d.com,2011:
--- !u!78 &1
TagManager:
  m_ObjectHideFlags: 0
  serializedVersion: 2
  tags:
  - ButtonCate
  - ButtonPartsType
  - ButtonMenuItem
  - ScaleCube
  - OvrEventObj
  - OvrEventGroup
  - MediaPlayerObj
  - MiniGameTarget
  layers:
  - Default
  - TransparentFX
  - Ignore Raycast
  -
  - Water
  - UI
  -
  -
  - NGUI
  - Terrain
  - Charactor
  - Face
  - Man
  - VrNoteObj
  - VrNoteTouch
  - Moza
  - TerrainNoMove
  - OvrGrabObj
  - OvrGrabHand
  - OvrTouchLookObj
  - BackGround
  - OvrLookObj
  -
  - AbsolutFront
  - VRMiniGameObject
  - OvrUIHit
  - CharaTouch
  - TouchHand
  -
  - OvrExclusiveHandCamera
  - 2D
  - RhythmActionUI
  m_SortingLayers:
  - name: Default
    uniqueID: 0
    locked: 0
